{
  "data": {
    "accountId": "1234",
    "number": "ES90 0182 1642 0302 0153 0412",
    "numberType": "IBAN",      
    "accountFamily": {
      "id": "COMMON",
      "name": "Common account."
    },
    "accountType": {
      "id": "14-260",
      "name": "Cuenta Express Bancomer"
    },
    "title": {
      "id": "14-260",
      "name": "Cuenta Express Bancomer"
    },
    "status": {
      "id": "ACTIVATED",
      "name": "The account is fully operative"
    }
  }
}