{
  "messages": [
    {
      "code": "mandatoryParametersMissing",
      "message": "Some mandatory parameters has not been reported.",
      "parameters": [
        {
          "name": "status.id"
        }
      ],
      "type": "ERROR"
    }
  ]
}