{
  "messages": [
    {
      "code": "CUSTOMER_NOT_VALID",
      "message": "If the customer does not meet the conditions required to be able to generate the payroll advance contract (For example, If the customer has products in arrears, he is registered in BAEP)",
      "type": "ERROR"
    }
  ]
}